quarto-input93f088d179c9707c – Roberto Cantillan
…
# eliminar atributos de diseño
elsoc_ego[["ego"]][["variables"]][["ponderador02"]]<-NULL
elsoc_ego[["ego"]][["variables"]][["estrato"]]<-NULL
elsoc_ego[["ego"]][["variables"]][["segmento"]]<-NULL

# drop NA
variables <- c("sexo", "educ", "relig", "ideol", "barrio")
for (variable in variables) {
  elsoc_ego[["ego"]] <- elsoc_ego[["ego"]] %>% drop_na({{ variable }})
  elsoc_ego[["alter"]] <- elsoc_ego[["alter"]] %>% drop_na({{ variable }})
}

as_tibble(elsoc_ego$alter)

# A tibble: 6,849 × 10
   .altID .egoID  sexo   edad educ  relig ideol barrio relacion rel  
   <chr>  <chr>   <fct> <dbl> <fct> <fct> <fct> <fct>     <dbl> <chr>
 1 1      1101011 1        77 2     1     5     1             1 fam  
 2 6      1101012 1        60 2     1     6     1             1 fam  
 3 11     1101013 2        54 1     1     6     1             3 fam  
 4 12     1101013 2        33 2     1     6     1             3 fam  
 5 16     1101021 1        55 2     1     6     1             4 nofam
 6 21     1101022 2        44 4     4     6     1             2 fam  
 7 26     1101023 1        40 2     1     6     1             3 fam  
 8 31     1101032 2        31 4     1     6     1             2 fam  
 9 32     1101032 1        57 2     1     5     1             1 fam  
10 36     1101033 1        37 2     1     2     1             1 fam  
# ℹ 6,839 more rows
…
Tidy

broom::tidy(modelo1, exponentiate = TRUE, conf.int = TRUE, conf.level = 0.99)

Warning in tidy.ergm(modelo1, exponentiate = TRUE, conf.int = TRUE, conf.level
= 0.99): Exponentiating but model didn't use log or logit link.

# A tibble: 30 × 8
   term       estimate std.error mcmc.error statistic p.value conf.low conf.high
   <chr>         <dbl>     <dbl>      <dbl>     <dbl>   <dbl>    <dbl>     <dbl>
 1 offset(ne… 0.000204    0               0  -Inf     0       0.000204  0.000204
 2 nodefacto… 0.749       0.239           0    -1.21  2.27e-1 0.405     1.39    
 3 nodefacto… 1.36        0.0785          0     3.89  1.02e-4 1.11      1.66    
 4 nodefacto… 1.31        0.0980          0     2.76  5.78e-3 1.02      1.69    
 5 nodefacto… 1.07        0.0980          0     0.686 4.93e-1 0.831     1.38    
 6 nodefacto… 0.928       0.138           0    -0.541 5.89e-1 0.650     1.32    
 7 nodefacto… 0.904       0.115           0    -0.879 3.79e-1 0.673     1.21    
 8 nodefacto… 1.14        0.135           0     0.936 3.49e-1 0.801     1.61    
 9 nodefacto… 1.02        0.112           0     0.140 8.88e-1 0.762     1.35    
10 nodefacto… 1.32        0.109           0     2.57  1.03e-2 0.999     1.75    
# ℹ 20 more rows
…
